…
The tidy data is then grouped and summarized by average

    tidy_data_average<- tidy_data %>% 
      group_by( subject, activity_labels) %>% 
      summarise(across(everything(), mean), .groups = "drop") %>% 
      arrange(activity_labels) 
    tidy_data_average

    ## # A tibble: 40 × 81
    ##    subject activity_la…¹ tBody…² tBody…³ tBody…⁴ tBody…⁵ tBody…⁶ tBody…⁷ tGrav…⁸
    ##    <chr>   <chr>           <dbl>   <dbl>   <dbl>   <dbl>   <dbl>   <dbl>   <dbl>
    ##  1 20      LAYING          0.268 -0.0154  -0.103  -0.547  -0.259  -0.640   0.591
    ##  2 24      LAYING          0.277 -0.0177  -0.108  -0.675  -0.582  -0.636   0.695
    ##  3 27      LAYING          0.278 -0.0169  -0.112  -0.575  -0.541  -0.608   0.585
    ##  4 28      LAYING          0.278 -0.0192  -0.110  -0.649  -0.574  -0.686   0.624
    ##  5 29      LAYING          0.279 -0.0185  -0.109  -0.574  -0.598  -0.606   0.683
    ##  6 30      LAYING          0.276 -0.0176  -0.106  -0.616  -0.519  -0.523   0.697
    ##  7 12      SITTING         0.276 -0.0185  -0.108  -0.509  -0.401  -0.722   0.630
    ##  8 13      SITTING         0.276 -0.0177  -0.109  -0.625  -0.449  -0.587   0.710
    ##  9 17      SITTING         0.273 -0.0181  -0.109  -0.551  -0.507  -0.613   0.669
    ## 10 18      SITTING         0.278 -0.0173  -0.110  -0.992  -0.939  -0.951   0.963
    ## # … with 30 more rows, 72 more variables: `tGravityAcc-mean()-Y` <dbl>,
    ## #   `tGravityAcc-mean()-Z` <dbl>, `tGravityAcc-std()-X` <dbl>,
    ## #   `tGravityAcc-std()-Y` <dbl>, `tGravityAcc-std()-Z` <dbl>,
    ## #   `tBodyAccJerk-mean()-X` <dbl>, `tBodyAccJerk-mean()-Y` <dbl>,
    ## #   `tBodyAccJerk-mean()-Z` <dbl>, `tBodyAccJerk-std()-X` <dbl>,
    ## #   `tBodyAccJerk-std()-Y` <dbl>, `tBodyAccJerk-std()-Z` <dbl>,
    ## #   `tBodyGyro-mean()-X` <dbl>, `tBodyGyro-mean()-Y` <dbl>, …
…
